C:\Users\luisc\OneDrive\Documentos\NetBeansProjects\Derecha\src\main\java\com\mycompany\derecha\sym.java
C:\Users\luisc\OneDrive\Documentos\NetBeansProjects\Derecha\src\main\java\java_cup\non_terminal.java
C:\Users\luisc\OneDrive\Documentos\NetBeansProjects\Derecha\src\main\java\java_cup\runtime\Scanner.java
C:\Users\luisc\OneDrive\Documentos\NetBeansProjects\Derecha\src\main\java\java_cup\assoc.java
C:\Users\luisc\OneDrive\Documentos\NetBeansProjects\Derecha\src\main\java\java_cup\lexer.java
C:\Users\luisc\OneDrive\Documentos\NetBeansProjects\Derecha\src\main\java\java_cup\runtime\lr_parser.java
C:\Users\luisc\OneDrive\Documentos\NetBeansProjects\Derecha\src\main\java\java_cup\production.java
C:\Users\luisc\OneDrive\Documentos\NetBeansProjects\Derecha\src\main\java\com\mycompany\derecha\MainCode.java
C:\Users\luisc\OneDrive\Documentos\NetBeansProjects\Derecha\src\main\java\com\mycompany\derecha\Token.java
C:\Users\luisc\OneDrive\Documentos\NetBeansProjects\Derecha\src\main\java\java_cup\version.java
C:\Users\luisc\OneDrive\Documentos\NetBeansProjects\Derecha\src\main\java\com\mycompany\derecha\Parser.java
C:\Users\luisc\OneDrive\Documentos\NetBeansProjects\Derecha\src\main\java\java_cup\lalr_item_set.java
C:\Users\luisc\OneDrive\Documentos\NetBeansProjects\Derecha\src\main\java\java_cup\parse_reduce_row.java
C:\Users\luisc\OneDrive\Documentos\NetBeansProjects\Derecha\src\main\java\java_cup\lalr_state.java
C:\Users\luisc\OneDrive\Documentos\NetBeansProjects\Derecha\src\main\java\java_cup\lr_item_core.java
C:\Users\luisc\OneDrive\Documentos\NetBeansProjects\Derecha\src\main\java\java_cup\emit.java
C:\Users\luisc\OneDrive\Documentos\NetBeansProjects\Derecha\src\main\java\java_cup\parse_action.java
C:\Users\luisc\OneDrive\Documentos\NetBeansProjects\Derecha\src\main\java\java_cup\terminal_set.java
C:\Users\luisc\OneDrive\Documentos\NetBeansProjects\Derecha\src\main\java\java_cup\production_part.java
C:\Users\luisc\OneDrive\Documentos\NetBeansProjects\Derecha\src\main\java\java_cup\reduce_action.java
C:\Users\luisc\OneDrive\Documentos\NetBeansProjects\Derecha\src\main\java\java_cup\nonassoc_action.java
C:\Users\luisc\OneDrive\Documentos\NetBeansProjects\Derecha\src\main\java\java_cup\shift_action.java
C:\Users\luisc\OneDrive\Documentos\NetBeansProjects\Derecha\src\main\java\com\mycompany\derecha\Scanner.lex.java
C:\Users\luisc\OneDrive\Documentos\NetBeansProjects\Derecha\src\main\java\java_cup\lalr_item.java
C:\Users\luisc\OneDrive\Documentos\NetBeansProjects\Derecha\src\main\java\java_cup\parse_action_row.java
C:\Users\luisc\OneDrive\Documentos\NetBeansProjects\Derecha\src\main\java\java_cup\symbol_part.java
C:\Users\luisc\OneDrive\Documentos\NetBeansProjects\Derecha\src\main\java\java_cup\action_production.java
C:\Users\luisc\OneDrive\Documentos\NetBeansProjects\Derecha\src\main\java\java_cup\Main.java
C:\Users\luisc\OneDrive\Documentos\NetBeansProjects\Derecha\src\main\java\java_cup\runtime\virtual_parse_stack.java
C:\Users\luisc\OneDrive\Documentos\NetBeansProjects\Derecha\src\main\java\java_cup\terminal.java
C:\Users\luisc\OneDrive\Documentos\NetBeansProjects\Derecha\src\main\java\java_cup\parse_reduce_table.java
C:\Users\luisc\OneDrive\Documentos\NetBeansProjects\Derecha\src\main\java\java_cup\symbol.java
C:\Users\luisc\OneDrive\Documentos\NetBeansProjects\Derecha\src\main\java\java_cup\parser.java
C:\Users\luisc\OneDrive\Documentos\NetBeansProjects\Derecha\src\main\java\java_cup\action_part.java
C:\Users\luisc\OneDrive\Documentos\NetBeansProjects\Derecha\src\main\java\java_cup\symbol_set.java
C:\Users\luisc\OneDrive\Documentos\NetBeansProjects\Derecha\src\main\java\java_cup\lalr_transition.java
C:\Users\luisc\OneDrive\Documentos\NetBeansProjects\Derecha\src\main\java\JLex\Main.java
C:\Users\luisc\OneDrive\Documentos\NetBeansProjects\Derecha\src\main\java\java_cup\parse_action_table.java
C:\Users\luisc\OneDrive\Documentos\NetBeansProjects\Derecha\src\main\java\java_cup\runtime\Symbol.java
C:\Users\luisc\OneDrive\Documentos\NetBeansProjects\Derecha\src\main\java\java_cup\sym.java
C:\Users\luisc\OneDrive\Documentos\NetBeansProjects\Derecha\src\main\java\java_cup\internal_error.java
